{
    "id": "payment-models",
    "title": "Payment methods",
    "methods": [
        {
            "id": "free",
            "title": "Free",
            "description": "Free of charge",
            "icon": "",
            "color": ""
        },
        {
            "id": "freemium",
            "title": "Freemium",
            "description": "Free with in-app purchases",
            "icon": "",
            "color": ""
        },
        {
            "id": "paid",
            "title": "Paid",
            "description": "Paid app",
            "icon": "bi bi-lock",
            "color": ""
        },
        {
            "id": "paid-in-app",
            "title": "Paid with in-app purchases",
            "description": "",
            "icon": "",
            "color": ""
        },
        {
            "id": "subscription",
            "title": "Subscription",
            "description": "App with a subscription model",
            "icon": "",
            "color": ""
        }
    ]
}